0=>
0:オートガーダー
1:オートガンナー
2:オートコマンダー
3:オートスカウター

1=>
0:オートガーダー
1:オートガンナー
2:オートスカウター

2=>
0:オートコマンダー
1:鉄騎11号

3=>
0:オートアーマー
1:オートハンター

4=>
0:オートアーマー
1:アルベドキャプチャー

5=>
0:ズー
1:アルキュオネ
2:オートアーマー
3:サンドバルサム

6=>
0:サポテンダー

7=>
0:ヨルムンガルド

8=>
0:ドン・トンベリ

9=>
0:訓練場にのみ出現するモンスター

10=>
0:ファヴニル

11=>
0:闘鬼

12=>
0:モルボルワースト
1:アバドン

13=>
0:アビスウォーム

14=>
0:エレメンタル・ネガ

15=>
0:カトブレパス

16=>
0:各種モンスター

17=>
0:各種モンスター

18=>
0:各種モンスター

19=>
0:各種モンスター

20=>
0:アースイーター

21=>
0:シーモア
1:アニマ

22=>
0:エフレイエ
1:エフレイエ＝オルタナ

23=>
0:シンのコケラ：ギィ
1:サンドウォーム
2:ピュロボルス

24=>
0:スフィアマナージュ
1:シーモア・異体
2:ゼロ式護法機士

25=>
0:メチーエ
1:デビルモノリス
2:ゼロ式護法機士
3:キングベヒーモス
4:シンのみぎうで
5:シン
6:ユウナレスカ
7:シーモア：最終異体

26=>
0:シーモア：終異体
1:魔天のガーディアン

27=>
0:アイアンクラッド
1:シンのひだりうで

28=>
0:はぐれオチュー
1:ウィーザルシャ

29=>
0:ジャガーノート

30=>
0:タンケット

31=>
0:ジャンボプリン

32=>
0:1つ目

33=>
0:フェンリル

34=>
0:プテリクス

35=>
0:ホーネット

36=>
0:ヒュージスフィア

37=>
0:ビラン＝ロンゾ
1:エンケ＝ロンゾ
2:聖地のガーディアン
3:キマイラガイスト

38=>
0:ヴォーバン

39=>
0:ネムリダケ
1:マスタートンベリ

40=>
0:全てを超えし者

41=>
0:エスパーダ

42=>
0:ネスラグ

43=>
0:ストラトエイビス

44=>
0:カタストロフィ

45=>
0:ボムキング

46=>
0:神龍

47=>
0:オルニトレステス

48=>
0:ブラキオレイドス

49=>
0:アルテマバスター

